{
	"author": {
		"email": "Steve.Ball@composed.io",
		"name": "Steve Ball",
		"url": "www.composed.io"
	},
	"dependencies": {
		"@cs/configuration": "^1.2.0",
		"@cs/database": "^0.2.4",
		"@cs/database-mysql": "^0.9.11"
	},
	"description": "Read and write configuration values to a database!\nRequires @cs/configuration and @cs/database-interface",
	"devDependencies": {
		"@cs/ci": "^1.1.0"
	},
	"license": "ISC",
	"lvversion": ">=17",
	"name": "database-configuration",
	"private": true,
	"repository": "https://bitbucket.org/composedsystems/composed-database-configuration/src/master/",
	"version": "0.1.2"
}